{
  "project_info": {
    "project_number": "937577884425",
    "firebase_url": "https://tennisgame-c7358.firebaseio.com",
    "project_id": "tennisgame-c7358",
    "storage_bucket": "tennisgame-c7358.appspot.com"
  },
  "client": [
    {
      "client_info": {
        "mobilesdk_app_id": "1:937577884425:android:c4a84ec04ec3adda",
        "android_client_info": {
          "package_name": "io.github.dmitrikudrenko.tennisgame"
        }
      },
      "oauth_client": [
        {
          "client_id": "937577884425-30hn7ik8crmaja4fpidfv55s1d8migif.apps.googleusercontent.com",
          "client_type": 1,
          "android_info": {
            "package_name": "io.github.dmitrikudrenko.tennisgame",
            "certificate_hash": "BEAB20ACA6573B770BEC10F1EAF10C953991F0FF"
          }
        },
        {
          "client_id": "937577884425-ebsllfdf0de9793695lgotnimj3s5s4f.apps.googleusercontent.com",
          "client_type": 1,
          "android_info": {
            "package_name": "io.github.dmitrikudrenko.tennisgame",
            "certificate_hash": "E5082CFCFC6BE9AEB562C9395005AF0BF1FBC6A3"
          }
        },
        {
          "client_id": "937577884425-udkjh05608ratk1a378canpfok9prqlf.apps.googleusercontent.com",
          "client_type": 3
        }
      ],
      "api_key": [
        {
          "current_key": "AIzaSyBHsX25D4zlsxV-0HJIpsNA1p3vsbXeRwg"
        }
      ],
      "services": {
        "analytics_service": {
          "status": 1
        },
        "appinvite_service": {
          "status": 2,
          "other_platform_oauth_client": [
            {
              "client_id": "937577884425-udkjh05608ratk1a378canpfok9prqlf.apps.googleusercontent.com",
              "client_type": 3
            }
          ]
        },
        "ads_service": {
          "status": 2
        }
      }
    }
  ],
  "configuration_version": "1"
}